%!PS-Adobe-3.0 EPSF-3.0
%%DocumentNeededResources: font Helvetica
%%+ font Helvetica-Bold
%%+ font Helvetica-Oblique
%%+ font Helvetica-BoldOblique
%%+ font Symbol
%%Title: R Graphics Output
%%Creator: R Software
%%Pages: (atend)
%%BoundingBox: 0 0 535 290
%%EndComments
%%BeginProlog
/bp  { gs sRGB gs } def
% begin .ps.prolog
/gs  { gsave } bind def
/gr  { grestore } bind def
/ep  { showpage gr gr } bind def
/m   { moveto } bind def
/l  { rlineto } bind def
/np  { newpath } bind def
/cp  { closepath } bind def
/f   { fill } bind def
/o   { stroke } bind def
/c   { newpath 0 360 arc } bind def
/r   { 4 2 roll moveto 1 copy 3 -1 roll exch 0 exch rlineto 0 rlineto -1 mul 0 exch rlineto closepath } bind def
/p1  { stroke } bind def
/p2  { gsave bg fill grestore newpath } bind def
/p3  { gsave bg fill grestore stroke } bind def
/p6  { gsave bg eofill grestore newpath } bind def
/p7  { gsave bg eofill grestore stroke } bind def
/t   { 5 -2 roll moveto gsave rotate
       1 index stringwidth pop
       mul neg 0 rmoveto show grestore } bind def
/ta  { 4 -2 roll moveto gsave rotate show } bind def
/tb  { 2 -1 roll 0 rmoveto show } bind def
/cl  { grestore gsave newpath 3 index 3 index moveto 1 index
       4 -1 roll lineto  exch 1 index lineto lineto
       closepath clip newpath } bind def
/rgb { setrgbcolor } bind def
/s   { scalefont setfont } bind def
% end   .ps.prolog
/sRGB { [ /CIEBasedABC
          << /DecodeLMN
               [ { dup 0.03928 le
                        {12.92321 div}
                        {0.055 add 1.055 div 2.4 exp }
                     ifelse
                 } bind dup dup
               ]
             /MatrixLMN [0.412457 0.212673 0.019334
                         0.357576 0.715152 0.119192
                         0.180437 0.072175 0.950301]
             /WhitePoint [0.9505 1.0 1.0890]
           >>
         ] setcolorspace } bind def
/srgb { setcolor } bind def
%%IncludeResource: font Helvetica
/Helvetica findfont
dup length dict begin
  {1 index /FID ne {def} {pop pop} ifelse} forall
  /Encoding ISOLatin1Encoding def
  currentdict
  end
/Font1 exch definefont pop
%%IncludeResource: font Helvetica-Bold
/Helvetica-Bold findfont
dup length dict begin
  {1 index /FID ne {def} {pop pop} ifelse} forall
  /Encoding ISOLatin1Encoding def
  currentdict
  end
/Font2 exch definefont pop
%%IncludeResource: font Helvetica-Oblique
/Helvetica-Oblique findfont
dup length dict begin
  {1 index /FID ne {def} {pop pop} ifelse} forall
  /Encoding ISOLatin1Encoding def
  currentdict
  end
/Font3 exch definefont pop
%%IncludeResource: font Helvetica-BoldOblique
/Helvetica-BoldOblique findfont
dup length dict begin
  {1 index /FID ne {def} {pop pop} ifelse} forall
  /Encoding ISOLatin1Encoding def
  currentdict
  end
/Font4 exch definefont pop
%%IncludeResource: font Symbol
/Symbol findfont
dup length dict begin
  {1 index /FID ne {def} {pop pop} ifelse} forall
  currentdict
  end
/Font5 exch definefont pop
%%EndProlog
%%Page: 1 1
bp
/bg { 1 1 1 srgb } def
0.00 0.00 534.75 290.25 r p2
59.04 73.44 504.51 231.21 cl
1 0 0 srgb
0.75 setlinewidth
[] 0 setdash
1 setlinecap
1 setlinejoin
10.00 setmiterlimit
np
75.54 217.77 m
45.83 7.60 l
45.83 -1.13 l
45.83 -143.10 l
45.83 -0.92 l
45.83 -0.36 l
45.83 -0.22 l
45.83 -0.15 l
45.83 -0.12 l
45.83 -0.09 l
o
0.00 0.00 534.75 290.25 cl
0 0 0 srgb
0.75 setlinewidth
[] 0 setdash
1 setlinecap
1 setlinejoin
10.00 setmiterlimit
np
121.37 73.44 m
366.64 0 l
o
np
121.37 73.44 m
0 -7.20 l
o
np
213.03 73.44 m
0 -7.20 l
o
np
304.69 73.44 m
0 -7.20 l
o
np
396.35 73.44 m
0 -7.20 l
o
np
488.01 73.44 m
0 -7.20 l
o
/Font1 findfont 12 s
121.37 47.52 (2) .5 0 t
213.03 47.52 (4) .5 0 t
304.69 47.52 (6) .5 0 t
396.35 47.52 (8) .5 0 t
488.01 47.52 (10) .5 0 t
np
59.04 78.71 m
0 121.23 l
o
np
59.04 78.71 m
-7.20 0 l
o
np
59.04 119.12 m
-7.20 0 l
o
np
59.04 159.53 m
-7.20 0 l
o
np
59.04 199.94 m
-7.20 0 l
o
41.76 78.71 (0) .5 90 t
41.76 119.12 (20) .5 90 t
41.76 159.53 (40) .5 90 t
41.76 199.94 (60) .5 90 t
np
59.04 73.44 m
445.47 0 l
0 157.77 l
-445.47 0 l
0 -157.77 l
o
0.00 0.00 534.75 290.25 cl
/Font1 findfont 12 s
0 0 0 srgb
281.77 18.72 (System Cost) .5 0 t
59.04 73.44 504.51 231.21 cl
0 0 1 srgb
0.75 setlinewidth
[] 0 setdash
1 setlinecap
1 setlinejoin
10.00 setmiterlimit
np
75.54 84.16 m
45.83 -3.98 l
45.83 -0.62 l
45.83 0.31 l
45.83 0.01 l
45.83 -0.10 l
45.83 -0.10 l
45.83 -0.06 l
45.83 -0.03 l
45.83 -0.03 l
o
/bg { 1 1 1 srgb } def
0 0 0 srgb
434.13 231.21 70.38 -34.56 r p3
1 0 0 srgb
np
442.77 219.69 m
17.28 0 l
o
0 0 1 srgb
np
442.77 208.17 m
17.28 0 l
o
/Font1 findfont 10 s
0 0 0 srgb
468.69 216.10 (lambda) 0 0 t
468.69 204.58 (m) 0 ta
-0.100 (u) tb gr
ep
%%Trailer
%%Pages: 1
%%EOF
