%!PS-Adobe-3.0 EPSF-3.0
%%DocumentNeededResources: font Helvetica
%%+ font Helvetica-Bold
%%+ font Helvetica-Oblique
%%+ font Helvetica-BoldOblique
%%+ font Symbol
%%Title: R Graphics Output
%%Creator: R Software
%%Pages: (atend)
%%BoundingBox: 0 0 685 290
%%EndComments
%%BeginProlog
/bp  { gs sRGB gs } def
% begin .ps.prolog
/gs  { gsave } bind def
/gr  { grestore } bind def
/ep  { showpage gr gr } bind def
/m   { moveto } bind def
/l  { rlineto } bind def
/np  { newpath } bind def
/cp  { closepath } bind def
/f   { fill } bind def
/o   { stroke } bind def
/c   { newpath 0 360 arc } bind def
/r   { 4 2 roll moveto 1 copy 3 -1 roll exch 0 exch rlineto 0 rlineto -1 mul 0 exch rlineto closepath } bind def
/p1  { stroke } bind def
/p2  { gsave bg fill grestore newpath } bind def
/p3  { gsave bg fill grestore stroke } bind def
/p6  { gsave bg eofill grestore newpath } bind def
/p7  { gsave bg eofill grestore stroke } bind def
/t   { 5 -2 roll moveto gsave rotate
       1 index stringwidth pop
       mul neg 0 rmoveto show grestore } bind def
/ta  { 4 -2 roll moveto gsave rotate show } bind def
/tb  { 2 -1 roll 0 rmoveto show } bind def
/cl  { grestore gsave newpath 3 index 3 index moveto 1 index
       4 -1 roll lineto  exch 1 index lineto lineto
       closepath clip newpath } bind def
/rgb { setrgbcolor } bind def
/s   { scalefont setfont } bind def
% end   .ps.prolog
/sRGB { [ /CIEBasedABC
          << /DecodeLMN
               [ { dup 0.03928 le
                        {12.92321 div}
                        {0.055 add 1.055 div 2.4 exp }
                     ifelse
                 } bind dup dup
               ]
             /MatrixLMN [0.412457 0.212673 0.019334
                         0.357576 0.715152 0.119192
                         0.180437 0.072175 0.950301]
             /WhitePoint [0.9505 1.0 1.0890]
           >>
         ] setcolorspace } bind def
/srgb { setcolor } bind def
%%IncludeResource: font Helvetica
/Helvetica findfont
dup length dict begin
  {1 index /FID ne {def} {pop pop} ifelse} forall
  /Encoding ISOLatin1Encoding def
  currentdict
  end
/Font1 exch definefont pop
%%IncludeResource: font Helvetica-Bold
/Helvetica-Bold findfont
dup length dict begin
  {1 index /FID ne {def} {pop pop} ifelse} forall
  /Encoding ISOLatin1Encoding def
  currentdict
  end
/Font2 exch definefont pop
%%IncludeResource: font Helvetica-Oblique
/Helvetica-Oblique findfont
dup length dict begin
  {1 index /FID ne {def} {pop pop} ifelse} forall
  /Encoding ISOLatin1Encoding def
  currentdict
  end
/Font3 exch definefont pop
%%IncludeResource: font Helvetica-BoldOblique
/Helvetica-BoldOblique findfont
dup length dict begin
  {1 index /FID ne {def} {pop pop} ifelse} forall
  /Encoding ISOLatin1Encoding def
  currentdict
  end
/Font4 exch definefont pop
%%IncludeResource: font Symbol
/Symbol findfont
dup length dict begin
  {1 index /FID ne {def} {pop pop} ifelse} forall
  currentdict
  end
/Font5 exch definefont pop
%%EndProlog
%%Page: 1 1
bp
/bg { 1 1 1 srgb } def
0.00 0.00 685.50 290.25 r p2
59.04 73.44 655.26 231.21 cl
0 0 0 srgb
0.75 setlinewidth
[] 0 setdash
1 setlinecap
1 setlinejoin
10.00 setmiterlimit
np
81.12 152.32 m
61.34 0 l
61.34 0 l
61.34 0 l
61.34 0 l
61.34 0 l
61.34 0 l
61.34 0 l
61.34 0 l
61.34 0 l
o
0.00 0.00 685.50 290.25 cl
0 0 0 srgb
0.75 setlinewidth
[] 0 setdash
1 setlinecap
1 setlinejoin
10.00 setmiterlimit
np
142.46 73.44 m
490.72 0 l
o
np
142.46 73.44 m
0 -7.20 l
o
np
265.14 73.44 m
0 -7.20 l
o
np
387.82 73.44 m
0 -7.20 l
o
np
510.50 73.44 m
0 -7.20 l
o
np
633.18 73.44 m
0 -7.20 l
o
/Font1 findfont 12 s
142.46 47.52 (2) .5 0 t
265.14 47.52 (4) .5 0 t
387.82 47.52 (6) .5 0 t
510.50 47.52 (8) .5 0 t
633.18 47.52 (10) .5 0 t
np
59.04 79.28 m
0 146.09 l
o
np
59.04 79.28 m
-7.20 0 l
o
np
59.04 115.80 m
-7.20 0 l
o
np
59.04 152.32 m
-7.20 0 l
o
np
59.04 188.85 m
-7.20 0 l
o
np
59.04 225.37 m
-7.20 0 l
o
41.76 79.28 (-1.0) .5 90 t
41.76 115.80 (-0.5) .5 90 t
41.76 152.32 (0.0) .5 90 t
41.76 188.85 (0.5) .5 90 t
41.76 225.37 (1.0) .5 90 t
np
59.04 73.44 m
596.22 0 l
0 157.77 l
-596.22 0 l
0 -157.77 l
o
0.00 0.00 685.50 290.25 cl
/Font2 findfont 14 s
0 0 0 srgb
286.36 255.70 (Expected Lif) 0 ta
-0.140 (e Length) tb gr
/Font1 findfont 12 s
357.15 18.72 (System Cost) .5 0 t
12.96 152.32 (E{T}) .5 90 t
ep
%%Trailer
%%Pages: 1
%%EOF
