%!PS-Adobe-3.0 EPSF-3.0
%%DocumentNeededResources: font Helvetica
%%+ font Helvetica-Bold
%%+ font Helvetica-Oblique
%%+ font Helvetica-BoldOblique
%%+ font Symbol
%%Title: R Graphics Output
%%Creator: R Software
%%Pages: (atend)
%%BoundingBox: 0 0 685 290
%%EndComments
%%BeginProlog
/bp  { gs sRGB gs } def
% begin .ps.prolog
/gs  { gsave } bind def
/gr  { grestore } bind def
/ep  { showpage gr gr } bind def
/m   { moveto } bind def
/l  { rlineto } bind def
/np  { newpath } bind def
/cp  { closepath } bind def
/f   { fill } bind def
/o   { stroke } bind def
/c   { newpath 0 360 arc } bind def
/r   { 4 2 roll moveto 1 copy 3 -1 roll exch 0 exch rlineto 0 rlineto -1 mul 0 exch rlineto closepath } bind def
/p1  { stroke } bind def
/p2  { gsave bg fill grestore newpath } bind def
/p3  { gsave bg fill grestore stroke } bind def
/p6  { gsave bg eofill grestore newpath } bind def
/p7  { gsave bg eofill grestore stroke } bind def
/t   { 5 -2 roll moveto gsave rotate
       1 index stringwidth pop
       mul neg 0 rmoveto show grestore } bind def
/ta  { 4 -2 roll moveto gsave rotate show } bind def
/tb  { 2 -1 roll 0 rmoveto show } bind def
/cl  { grestore gsave newpath 3 index 3 index moveto 1 index
       4 -1 roll lineto  exch 1 index lineto lineto
       closepath clip newpath } bind def
/rgb { setrgbcolor } bind def
/s   { scalefont setfont } bind def
% end   .ps.prolog
/sRGB { [ /CIEBasedABC
          << /DecodeLMN
               [ { dup 0.03928 le
                        {12.92321 div}
                        {0.055 add 1.055 div 2.4 exp }
                     ifelse
                 } bind dup dup
               ]
             /MatrixLMN [0.412457 0.212673 0.019334
                         0.357576 0.715152 0.119192
                         0.180437 0.072175 0.950301]
             /WhitePoint [0.9505 1.0 1.0890]
           >>
         ] setcolorspace } bind def
/srgb { setcolor } bind def
%%IncludeResource: font Helvetica
/Helvetica findfont
dup length dict begin
  {1 index /FID ne {def} {pop pop} ifelse} forall
  /Encoding ISOLatin1Encoding def
  currentdict
  end
/Font1 exch definefont pop
%%IncludeResource: font Helvetica-Bold
/Helvetica-Bold findfont
dup length dict begin
  {1 index /FID ne {def} {pop pop} ifelse} forall
  /Encoding ISOLatin1Encoding def
  currentdict
  end
/Font2 exch definefont pop
%%IncludeResource: font Helvetica-Oblique
/Helvetica-Oblique findfont
dup length dict begin
  {1 index /FID ne {def} {pop pop} ifelse} forall
  /Encoding ISOLatin1Encoding def
  currentdict
  end
/Font3 exch definefont pop
%%IncludeResource: font Helvetica-BoldOblique
/Helvetica-BoldOblique findfont
dup length dict begin
  {1 index /FID ne {def} {pop pop} ifelse} forall
  /Encoding ISOLatin1Encoding def
  currentdict
  end
/Font4 exch definefont pop
%%IncludeResource: font Symbol
/Symbol findfont
dup length dict begin
  {1 index /FID ne {def} {pop pop} ifelse} forall
  currentdict
  end
/Font5 exch definefont pop
%%EndProlog
%%Page: 1 1
bp
/bg { 1 1 1 srgb } def
0.00 0.00 685.50 290.25 r p2
59.04 73.44 655.26 231.21 cl
0 1 0 srgb
0.75 setlinewidth
[] 0 setdash
1 setlinecap
1 setlinejoin
10.00 setmiterlimit
np
81.12 79.28 m
0.55 0.74 l
0.56 0.73 l
0.55 0.72 l
0.55 0.73 l
0.55 0.71 l
0.55 0.72 l
0.56 0.71 l
0.55 0.71 l
0.55 0.70 l
0.55 0.71 l
0.55 0.69 l
0.56 0.70 l
0.55 0.69 l
0.55 0.69 l
0.55 0.68 l
0.56 0.68 l
0.55 0.68 l
0.55 0.67 l
0.55 0.67 l
0.55 0.67 l
0.56 0.66 l
0.55 0.66 l
0.55 0.66 l
0.55 0.65 l
0.55 0.66 l
0.56 0.64 l
0.55 0.65 l
0.55 0.64 l
0.55 0.64 l
0.55 0.63 l
0.56 0.63 l
0.55 0.63 l
0.55 0.62 l
0.55 0.63 l
0.55 0.62 l
0.56 0.61 l
0.55 0.61 l
0.55 0.61 l
0.55 0.61 l
0.55 0.60 l
0.56 0.60 l
0.55 0.60 l
0.55 0.60 l
0.55 0.59 l
0.55 0.59 l
0.56 0.58 l
0.55 0.58 l
0.55 0.58 l
0.55 0.58 l
0.55 0.58 l
0.56 0.57 l
0.55 0.57 l
0.55 0.56 l
0.55 0.56 l
0.56 0.56 l
0.55 0.56 l
0.55 0.56 l
0.55 0.55 l
0.55 0.55 l
0.56 0.54 l
0.55 0.55 l
0.55 0.54 l
0.55 0.53 l
0.55 0.54 l
0.56 0.53 l
0.55 0.53 l
0.55 0.53 l
0.55 0.52 l
0.55 0.53 l
0.56 0.52 l
0.55 0.51 l
0.55 0.52 l
0.55 0.51 l
0.55 0.51 l
0.56 0.51 l
0.55 0.50 l
0.55 0.50 l
0.55 0.50 l
0.55 0.50 l
0.56 0.49 l
0.55 0.49 l
0.55 0.49 l
0.55 0.49 l
0.55 0.48 l
0.56 0.48 l
0.55 0.48 l
0.55 0.48 l
0.55 0.48 l
0.56 0.47 l
0.55 0.47 l
0.55 0.47 l
0.55 0.46 l
0.55 0.47 l
0.56 0.46 l
0.55 0.45 l
0.55 0.46 l
0.55 0.45 l
0.55 0.46 l
0.56 0.45 l
136.33 137.15 lineto
0.55 0.45 l
0.55 0.44 l
0.55 0.44 l
0.56 0.44 l
0.55 0.44 l
0.55 0.43 l
0.55 0.43 l
0.55 0.43 l
0.56 0.43 l
0.55 0.42 l
0.55 0.43 l
0.55 0.42 l
0.55 0.42 l
0.56 0.41 l
0.55 0.42 l
0.55 0.41 l
0.55 0.41 l
0.55 0.41 l
0.56 0.41 l
0.55 0.40 l
0.55 0.40 l
0.55 0.40 l
0.56 0.40 l
0.55 0.40 l
0.55 0.39 l
0.55 0.40 l
0.55 0.39 l
0.56 0.39 l
0.55 0.38 l
0.55 0.39 l
0.55 0.38 l
0.55 0.38 l
0.56 0.38 l
0.55 0.38 l
0.55 0.37 l
0.55 0.38 l
0.55 0.37 l
0.56 0.37 l
0.55 0.37 l
0.55 0.36 l
0.55 0.37 l
0.55 0.36 l
0.56 0.36 l
0.55 0.36 l
0.55 0.36 l
0.55 0.35 l
0.55 0.35 l
0.56 0.36 l
0.55 0.35 l
0.55 0.34 l
0.55 0.35 l
0.55 0.35 l
0.56 0.34 l
0.55 0.34 l
0.55 0.34 l
0.55 0.34 l
0.55 0.33 l
0.56 0.34 l
0.55 0.33 l
0.55 0.33 l
0.55 0.33 l
0.56 0.33 l
0.55 0.33 l
0.55 0.32 l
0.55 0.32 l
0.55 0.33 l
0.56 0.32 l
0.55 0.31 l
0.55 0.32 l
0.55 0.32 l
0.55 0.31 l
0.56 0.31 l
0.55 0.31 l
0.55 0.31 l
0.55 0.31 l
0.55 0.30 l
0.56 0.31 l
0.55 0.30 l
0.55 0.30 l
0.55 0.30 l
0.55 0.30 l
0.56 0.30 l
0.55 0.29 l
0.55 0.30 l
0.55 0.29 l
0.55 0.29 l
0.56 0.29 l
0.55 0.29 l
0.55 0.28 l
0.55 0.29 l
0.55 0.28 l
0.56 0.28 l
0.55 0.28 l
0.55 0.28 l
0.55 0.28 l
0.56 0.28 l
0.55 0.27 l
0.55 0.28 l
0.55 0.27 l
191.53 172.25 lineto
0.56 0.27 l
0.55 0.27 l
0.55 0.27 l
0.55 0.26 l
0.55 0.27 l
0.56 0.26 l
0.55 0.26 l
0.55 0.26 l
0.55 0.26 l
0.55 0.26 l
0.56 0.26 l
0.55 0.25 l
0.55 0.26 l
0.55 0.25 l
0.55 0.25 l
0.56 0.25 l
0.55 0.25 l
0.55 0.25 l
0.55 0.25 l
0.55 0.24 l
0.56 0.25 l
0.55 0.24 l
0.55 0.24 l
0.55 0.24 l
0.55 0.24 l
0.56 0.24 l
0.55 0.23 l
0.55 0.24 l
0.55 0.24 l
0.55 0.23 l
0.56 0.23 l
0.55 0.23 l
0.55 0.23 l
0.55 0.23 l
0.56 0.23 l
0.55 0.22 l
0.55 0.23 l
0.55 0.22 l
0.55 0.23 l
0.56 0.22 l
0.55 0.22 l
0.55 0.22 l
0.55 0.22 l
0.55 0.22 l
0.56 0.21 l
0.55 0.22 l
0.55 0.21 l
0.55 0.22 l
0.55 0.21 l
0.56 0.21 l
0.55 0.21 l
0.55 0.21 l
0.55 0.21 l
0.55 0.20 l
0.56 0.21 l
0.55 0.21 l
0.55 0.20 l
0.55 0.20 l
0.55 0.20 l
0.56 0.21 l
0.55 0.20 l
0.55 0.19 l
0.55 0.20 l
0.55 0.20 l
0.56 0.19 l
0.55 0.20 l
0.55 0.19 l
0.55 0.20 l
0.56 0.19 l
0.55 0.19 l
0.55 0.19 l
0.55 0.19 l
0.55 0.19 l
0.56 0.19 l
0.55 0.18 l
0.55 0.19 l
0.55 0.18 l
0.55 0.19 l
0.56 0.18 l
0.55 0.18 l
0.55 0.18 l
0.55 0.18 l
0.55 0.18 l
0.56 0.18 l
0.55 0.18 l
0.55 0.17 l
0.55 0.18 l
0.55 0.17 l
0.56 0.18 l
0.55 0.17 l
0.55 0.17 l
0.55 0.17 l
0.55 0.17 l
0.56 0.17 l
0.55 0.17 l
0.55 0.17 l
0.55 0.16 l
0.55 0.17 l
0.56 0.17 l
246.74 193.54 lineto
0.55 0.16 l
0.55 0.17 l
0.55 0.16 l
0.56 0.16 l
0.55 0.16 l
0.55 0.16 l
0.55 0.16 l
0.56 0.16 l
0.55 0.15 l
0.55 0.16 l
0.55 0.16 l
0.55 0.15 l
0.56 0.16 l
0.55 0.15 l
0.55 0.15 l
0.55 0.15 l
0.55 0.16 l
0.56 0.15 l
0.55 0.15 l
0.55 0.14 l
0.55 0.15 l
0.55 0.15 l
0.56 0.15 l
0.55 0.14 l
0.55 0.15 l
0.55 0.14 l
0.55 0.15 l
0.56 0.14 l
0.55 0.14 l
0.55 0.14 l
0.55 0.14 l
0.55 0.14 l
0.56 0.14 l
0.55 0.14 l
0.55 0.14 l
0.55 0.14 l
0.55 0.13 l
0.56 0.14 l
0.55 0.13 l
0.55 0.14 l
0.55 0.13 l
0.56 0.14 l
0.55 0.13 l
0.55 0.13 l
0.55 0.13 l
0.55 0.13 l
0.56 0.13 l
0.55 0.13 l
0.55 0.13 l
0.55 0.13 l
0.55 0.13 l
0.56 0.12 l
0.55 0.13 l
0.55 0.13 l
0.55 0.12 l
0.55 0.13 l
0.56 0.12 l
0.55 0.12 l
0.55 0.12 l
0.55 0.13 l
0.55 0.12 l
0.56 0.12 l
0.55 0.12 l
0.55 0.12 l
0.55 0.12 l
0.55 0.11 l
0.56 0.12 l
0.55 0.12 l
0.55 0.12 l
0.55 0.11 l
0.55 0.12 l
0.56 0.11 l
0.55 0.12 l
0.55 0.11 l
0.55 0.11 l
0.56 0.12 l
0.55 0.11 l
0.55 0.11 l
0.55 0.11 l
0.55 0.11 l
0.56 0.11 l
0.55 0.11 l
0.55 0.11 l
0.55 0.11 l
0.55 0.10 l
0.56 0.11 l
0.55 0.11 l
0.55 0.10 l
0.55 0.11 l
0.55 0.10 l
0.56 0.11 l
0.55 0.10 l
0.55 0.10 l
0.55 0.11 l
0.55 0.10 l
0.56 0.10 l
0.55 0.10 l
0.55 0.10 l
0.55 0.10 l
301.94 206.45 lineto
0.56 0.10 l
0.55 0.10 l
0.55 0.10 l
0.55 0.10 l
0.55 0.09 l
0.56 0.10 l
0.55 0.10 l
0.55 0.09 l
0.55 0.10 l
0.55 0.09 l
0.56 0.10 l
0.55 0.09 l
0.55 0.10 l
0.55 0.09 l
0.56 0.09 l
0.55 0.09 l
0.55 0.10 l
0.55 0.09 l
0.55 0.09 l
0.56 0.09 l
0.55 0.09 l
0.55 0.09 l
0.55 0.09 l
0.55 0.08 l
0.56 0.09 l
0.55 0.09 l
0.55 0.09 l
0.55 0.08 l
0.55 0.09 l
0.56 0.09 l
0.55 0.08 l
0.55 0.09 l
0.55 0.08 l
0.55 0.09 l
0.56 0.08 l
0.55 0.08 l
0.55 0.09 l
0.55 0.08 l
0.55 0.08 l
0.56 0.08 l
0.55 0.08 l
0.55 0.08 l
0.55 0.08 l
0.55 0.08 l
0.56 0.08 l
0.55 0.08 l
0.55 0.08 l
0.55 0.08 l
0.56 0.08 l
0.55 0.08 l
0.55 0.07 l
0.55 0.08 l
0.55 0.08 l
0.56 0.07 l
0.55 0.08 l
0.55 0.07 l
0.55 0.08 l
0.55 0.07 l
0.56 0.08 l
0.55 0.07 l
0.55 0.08 l
0.55 0.07 l
0.55 0.07 l
0.56 0.07 l
0.55 0.08 l
0.55 0.07 l
0.55 0.07 l
0.55 0.07 l
0.56 0.07 l
0.55 0.07 l
0.55 0.07 l
0.55 0.07 l
0.55 0.07 l
0.56 0.07 l
0.55 0.07 l
0.55 0.07 l
0.55 0.06 l
0.55 0.07 l
0.56 0.07 l
0.55 0.07 l
0.55 0.06 l
0.55 0.07 l
0.55 0.06 l
0.56 0.07 l
0.55 0.06 l
0.55 0.07 l
0.55 0.06 l
0.56 0.07 l
0.55 0.06 l
0.55 0.07 l
0.55 0.06 l
0.55 0.06 l
0.56 0.07 l
0.55 0.06 l
0.55 0.06 l
0.55 0.06 l
0.55 0.06 l
0.56 0.06 l
0.55 0.06 l
357.15 214.29 lineto
0.55 0.06 l
0.55 0.06 l
0.56 0.05 l
0.55 0.06 l
0.55 0.06 l
0.55 0.06 l
0.55 0.06 l
0.56 0.06 l
0.55 0.06 l
0.55 0.05 l
0.55 0.06 l
0.55 0.06 l
0.56 0.05 l
0.55 0.06 l
0.55 0.06 l
0.55 0.05 l
0.55 0.06 l
0.56 0.05 l
0.55 0.06 l
0.55 0.05 l
0.55 0.06 l
0.56 0.05 l
0.55 0.06 l
0.55 0.05 l
0.55 0.05 l
0.55 0.06 l
0.56 0.05 l
0.55 0.05 l
0.55 0.05 l
0.55 0.06 l
0.55 0.05 l
0.56 0.05 l
0.55 0.05 l
0.55 0.05 l
0.55 0.05 l
0.55 0.05 l
0.56 0.05 l
0.55 0.05 l
0.55 0.05 l
0.55 0.05 l
0.55 0.05 l
0.56 0.05 l
0.55 0.05 l
0.55 0.05 l
0.55 0.05 l
0.55 0.05 l
0.56 0.04 l
0.55 0.05 l
0.55 0.05 l
0.55 0.05 l
0.55 0.04 l
0.56 0.05 l
0.55 0.05 l
0.55 0.04 l
0.55 0.05 l
0.55 0.04 l
0.56 0.05 l
0.55 0.04 l
0.55 0.05 l
0.55 0.04 l
0.56 0.05 l
0.55 0.04 l
0.55 0.05 l
0.55 0.04 l
0.55 0.04 l
0.56 0.05 l
0.55 0.04 l
0.55 0.04 l
0.55 0.05 l
0.55 0.04 l
0.56 0.04 l
0.55 0.04 l
0.55 0.05 l
0.55 0.04 l
0.55 0.04 l
0.56 0.04 l
0.55 0.04 l
0.55 0.04 l
0.55 0.04 l
0.55 0.05 l
0.56 0.04 l
0.55 0.04 l
0.55 0.04 l
0.55 0.04 l
0.55 0.03 l
0.56 0.04 l
0.55 0.04 l
0.55 0.04 l
0.55 0.04 l
0.55 0.04 l
0.56 0.04 l
0.55 0.04 l
0.55 0.03 l
0.55 0.04 l
0.56 0.04 l
0.55 0.04 l
0.55 0.03 l
0.55 0.04 l
0.55 0.04 l
412.36 219.04 lineto
0.55 0.03 l
0.55 0.04 l
0.55 0.03 l
0.55 0.04 l
0.56 0.04 l
0.55 0.03 l
0.55 0.04 l
0.55 0.03 l
0.55 0.04 l
0.56 0.03 l
0.55 0.04 l
0.55 0.03 l
0.55 0.04 l
0.55 0.03 l
0.56 0.03 l
0.55 0.04 l
0.55 0.03 l
0.55 0.04 l
0.55 0.03 l
0.56 0.03 l
0.55 0.04 l
0.55 0.03 l
0.55 0.03 l
0.55 0.03 l
0.56 0.04 l
0.55 0.03 l
0.55 0.03 l
0.55 0.03 l
0.56 0.03 l
0.55 0.04 l
0.55 0.03 l
0.55 0.03 l
0.55 0.03 l
0.56 0.03 l
0.55 0.03 l
0.55 0.03 l
0.55 0.03 l
0.55 0.03 l
0.56 0.03 l
0.55 0.03 l
0.55 0.03 l
0.55 0.03 l
0.55 0.03 l
0.56 0.03 l
0.55 0.03 l
0.55 0.03 l
0.55 0.03 l
0.55 0.03 l
0.56 0.03 l
0.55 0.02 l
0.55 0.03 l
0.55 0.03 l
0.55 0.03 l
0.56 0.03 l
0.55 0.03 l
0.55 0.02 l
0.55 0.03 l
0.55 0.03 l
0.56 0.03 l
0.55 0.02 l
0.55 0.03 l
0.55 0.03 l
0.55 0.02 l
0.56 0.03 l
0.55 0.03 l
0.55 0.02 l
0.55 0.03 l
0.56 0.03 l
0.55 0.02 l
0.55 0.03 l
0.55 0.02 l
0.55 0.03 l
0.56 0.02 l
0.55 0.03 l
0.55 0.03 l
0.55 0.02 l
0.55 0.03 l
0.56 0.02 l
0.55 0.02 l
0.55 0.03 l
0.55 0.02 l
0.55 0.03 l
0.56 0.02 l
0.55 0.03 l
0.55 0.02 l
0.55 0.02 l
0.55 0.03 l
0.56 0.02 l
0.55 0.03 l
0.55 0.02 l
0.55 0.02 l
0.55 0.03 l
0.56 0.02 l
0.55 0.02 l
0.55 0.02 l
0.55 0.03 l
0.55 0.02 l
0.56 0.02 l
0.55 0.02 l
467.56 221.92 lineto
0.55 0.02 l
0.56 0.02 l
0.55 0.02 l
0.55 0.02 l
0.55 0.03 l
0.55 0.02 l
0.56 0.02 l
0.55 0.02 l
0.55 0.02 l
0.55 0.02 l
0.55 0.02 l
0.56 0.03 l
0.55 0.02 l
0.55 0.02 l
0.55 0.02 l
0.55 0.02 l
0.56 0.02 l
0.55 0.02 l
0.55 0.02 l
0.55 0.02 l
0.55 0.02 l
0.56 0.02 l
0.55 0.02 l
0.55 0.02 l
0.55 0.02 l
0.55 0.02 l
0.56 0.02 l
0.55 0.02 l
0.55 0.02 l
0.55 0.02 l
0.55 0.01 l
0.56 0.02 l
0.55 0.02 l
0.55 0.02 l
0.55 0.02 l
0.55 0.02 l
0.56 0.02 l
0.55 0.01 l
0.55 0.02 l
0.55 0.02 l
0.56 0.02 l
0.55 0.02 l
0.55 0.02 l
0.55 0.01 l
0.55 0.02 l
0.56 0.02 l
0.55 0.02 l
0.55 0.01 l
0.55 0.02 l
0.55 0.02 l
0.56 0.02 l
0.55 0.01 l
0.55 0.02 l
0.55 0.02 l
0.55 0.01 l
0.56 0.02 l
0.55 0.02 l
0.55 0.01 l
0.55 0.02 l
0.55 0.02 l
0.56 0.01 l
0.55 0.02 l
0.55 0.02 l
0.55 0.01 l
0.55 0.02 l
0.56 0.01 l
0.55 0.02 l
0.55 0.02 l
0.55 0.01 l
0.55 0.02 l
0.56 0.01 l
0.55 0.02 l
0.55 0.01 l
0.55 0.02 l
0.56 0.02 l
0.55 0.01 l
0.55 0.02 l
0.55 0.01 l
0.55 0.02 l
0.56 0.01 l
0.55 0.02 l
0.55 0.01 l
0.55 0.01 l
0.55 0.02 l
0.56 0.01 l
0.55 0.02 l
0.55 0.01 l
0.55 0.02 l
0.55 0.01 l
0.56 0.02 l
0.55 0.01 l
0.55 0.01 l
0.55 0.02 l
0.55 0.01 l
0.56 0.02 l
0.55 0.01 l
0.55 0.01 l
0.55 0.02 l
0.55 0.01 l
522.77 223.66 lineto
0.55 0.02 l
0.55 0.01 l
0.55 0.01 l
0.55 0.02 l
0.56 0.01 l
0.55 0.01 l
0.55 0.02 l
0.55 0.01 l
0.55 0.01 l
0.56 0.02 l
0.55 0.01 l
0.55 0.01 l
0.55 0.01 l
0.56 0.02 l
0.55 0.01 l
0.55 0.01 l
0.55 0.01 l
0.55 0.02 l
0.56 0.01 l
0.55 0.01 l
0.55 0.01 l
0.55 0.01 l
0.55 0.02 l
0.56 0.01 l
0.55 0.01 l
0.55 0.01 l
0.55 0.01 l
0.55 0.02 l
0.56 0.01 l
0.55 0.01 l
0.55 0.01 l
0.55 0.01 l
0.55 0.01 l
0.56 0.02 l
0.55 0.01 l
0.55 0.01 l
0.55 0.01 l
0.55 0.01 l
0.56 0.01 l
0.55 0.01 l
0.55 0.01 l
0.55 0.01 l
0.55 0.02 l
0.56 0.01 l
0.55 0.01 l
0.55 0.01 l
0.55 0.01 l
0.56 0.01 l
0.55 0.01 l
0.55 0.01 l
0.55 0.01 l
0.55 0.01 l
0.56 0.01 l
0.55 0.01 l
0.55 0.01 l
0.55 0.01 l
0.55 0.01 l
0.56 0.01 l
0.55 0.01 l
0.55 0.01 l
0.55 0.01 l
0.55 0.01 l
0.56 0.01 l
0.55 0.01 l
0.55 0.01 l
0.55 0.01 l
0.55 0.01 l
0.56 0.01 l
0.55 0.01 l
0.55 0.01 l
0.55 0.01 l
0.55 0.01 l
0.56 0.01 l
0.55 0.01 l
0.55 0.01 l
0.55 0.01 l
0.55 0 l
0.56 0.01 l
0.55 0.01 l
0.55 0.01 l
0.55 0.01 l
0.56 0.01 l
0.55 0.01 l
0.55 0.01 l
0.55 0.01 l
0.55 0.01 l
0.56 0 l
0.55 0.01 l
0.55 0.01 l
0.55 0.01 l
0.55 0.01 l
0.56 0.01 l
0.55 0.01 l
0.55 0 l
0.55 0.01 l
0.55 0.01 l
0.56 0.01 l
0.55 0.01 l
0.55 0.01 l
577.97 224.72 lineto
0.55 0.01 l
0.56 0.01 l
0.55 0.01 l
0.55 0.01 l
0.55 0 l
0.55 0.01 l
0.56 0.01 l
0.55 0.01 l
0.55 0.01 l
0.55 0 l
0.55 0.01 l
0.56 0.01 l
0.55 0.01 l
0.55 0 l
0.55 0.01 l
0.55 0.01 l
0.56 0.01 l
0.55 0 l
0.55 0.01 l
0.55 0.01 l
0.56 0.01 l
0.55 0 l
0.55 0.01 l
0.55 0.01 l
0.55 0.01 l
0.56 0 l
0.55 0.01 l
0.55 0.01 l
0.55 0 l
0.55 0.01 l
0.56 0.01 l
0.55 0.01 l
0.55 0 l
0.55 0.01 l
0.55 0.01 l
0.56 0 l
0.55 0.01 l
0.55 0.01 l
0.55 0 l
0.55 0.01 l
0.56 0.01 l
0.55 0 l
0.55 0.01 l
0.55 0.01 l
0.55 0 l
0.56 0.01 l
0.55 0.01 l
0.55 0 l
0.55 0.01 l
0.55 0.01 l
0.56 0 l
0.55 0.01 l
0.55 0 l
0.55 0.01 l
0.56 0.01 l
0.55 0 l
0.55 0.01 l
0.55 0.01 l
0.55 0 l
0.56 0.01 l
0.55 0 l
0.55 0.01 l
0.55 0.01 l
0.55 0 l
0.56 0.01 l
0.55 0 l
0.55 0.01 l
0.55 0 l
0.55 0.01 l
0.56 0.01 l
0.55 0 l
0.55 0.01 l
0.55 0 l
0.55 0.01 l
0.56 0 l
0.55 0.01 l
0.55 0.01 l
0.55 0 l
0.55 0.01 l
0.56 0 l
0.55 0.01 l
0.55 0 l
0.55 0.01 l
0.55 0 l
0.56 0.01 l
0.55 0 l
0.55 0.01 l
0.55 0.01 l
0.55 0 l
0.56 0.01 l
0.55 0 l
0.55 0.01 l
0.55 0 l
0.56 0.01 l
0.55 0 l
0.55 0.01 l
0.55 0 l
0.55 0.01 l
0.56 0 l
currentpoint o m
633.18 225.37 lineto
o
0.00 0.00 685.50 290.25 cl
0 0 0 srgb
0.75 setlinewidth
[] 0 setdash
1 setlinecap
1 setlinejoin
10.00 setmiterlimit
np
81.12 73.44 m
552.06 0 l
o
np
81.12 73.44 m
0 -7.20 l
o
np
191.53 73.44 m
0 -7.20 l
o
np
301.94 73.44 m
0 -7.20 l
o
np
412.36 73.44 m
0 -7.20 l
o
np
522.77 73.44 m
0 -7.20 l
o
np
633.18 73.44 m
0 -7.20 l
o
/Font1 findfont 12 s
81.12 47.52 (0) .5 0 t
191.53 47.52 (2) .5 0 t
301.94 47.52 (4) .5 0 t
412.36 47.52 (6) .5 0 t
522.77 47.52 (8) .5 0 t
633.18 47.52 (10) .5 0 t
np
59.04 79.28 m
0 147.08 l
o
np
59.04 79.28 m
-7.20 0 l
o
np
59.04 108.70 m
-7.20 0 l
o
np
59.04 138.11 m
-7.20 0 l
o
np
59.04 167.53 m
-7.20 0 l
o
np
59.04 196.94 m
-7.20 0 l
o
np
59.04 226.36 m
-7.20 0 l
o
41.76 79.28 (0.0) .5 90 t
41.76 108.70 (0.2) .5 90 t
41.76 138.11 (0.4) .5 90 t
41.76 167.53 (0.6) .5 90 t
41.76 196.94 (0.8) .5 90 t
41.76 226.36 (1.0) .5 90 t
np
59.04 73.44 m
596.22 0 l
0 157.77 l
-596.22 0 l
0 -157.77 l
o
0.00 0.00 685.50 290.25 cl
/Font2 findfont 14 s
0 0 0 srgb
317.09 255.70 (pe) 0 ta
-0.210 (xp\(x, rho\)) tb gr
/Font1 findfont 12 s
357.15 18.72 (x) .5 0 t
12.96 120.31 (pe) 90 ta
-0.360 (xp\(x, rho\)) tb gr
59.04 73.44 655.26 231.21 cl
1 0 0 srgb
0.75 setlinewidth
[] 0 setdash
1 setlinecap
1 setlinejoin
10.00 setmiterlimit
np
81.12 79.28 m
0.55 0.43 l
0.56 0.43 l
0.55 0.42 l
0.55 0.42 l
0.55 0.42 l
0.55 0.42 l
0.56 0.42 l
0.55 0.42 l
0.55 0.42 l
0.55 0.41 l
0.55 0.42 l
0.56 0.41 l
0.55 0.41 l
0.55 0.41 l
0.55 0.41 l
0.56 0.41 l
0.55 0.41 l
0.55 0.41 l
0.55 0.40 l
0.55 0.40 l
0.56 0.41 l
0.55 0.40 l
0.55 0.40 l
0.55 0.40 l
0.55 0.40 l
0.56 0.39 l
0.55 0.40 l
0.55 0.39 l
0.55 0.40 l
0.55 0.39 l
0.56 0.39 l
0.55 0.39 l
0.55 0.39 l
0.55 0.39 l
0.55 0.38 l
0.56 0.39 l
0.55 0.38 l
0.55 0.38 l
0.55 0.39 l
0.55 0.38 l
0.56 0.38 l
0.55 0.38 l
0.55 0.37 l
0.55 0.38 l
0.55 0.38 l
0.56 0.37 l
0.55 0.37 l
0.55 0.38 l
0.55 0.37 l
0.55 0.37 l
0.56 0.37 l
0.55 0.36 l
0.55 0.37 l
0.55 0.37 l
0.56 0.36 l
0.55 0.36 l
0.55 0.37 l
0.55 0.36 l
0.55 0.36 l
0.56 0.36 l
0.55 0.36 l
0.55 0.35 l
0.55 0.36 l
0.55 0.36 l
0.56 0.35 l
0.55 0.35 l
0.55 0.36 l
0.55 0.35 l
0.55 0.35 l
0.56 0.35 l
0.55 0.34 l
0.55 0.35 l
0.55 0.35 l
0.55 0.34 l
0.56 0.35 l
0.55 0.34 l
0.55 0.34 l
0.55 0.34 l
0.55 0.34 l
0.56 0.34 l
0.55 0.34 l
0.55 0.34 l
0.55 0.33 l
0.55 0.34 l
0.56 0.33 l
0.55 0.34 l
0.55 0.33 l
0.55 0.33 l
0.56 0.33 l
0.55 0.33 l
0.55 0.33 l
0.55 0.33 l
0.55 0.32 l
0.56 0.33 l
0.55 0.32 l
0.55 0.33 l
0.55 0.32 l
0.55 0.32 l
0.56 0.32 l
136.33 116.36 lineto
0.55 0.32 l
0.55 0.32 l
0.55 0.32 l
0.56 0.31 l
0.55 0.32 l
0.55 0.31 l
0.55 0.32 l
0.55 0.31 l
0.56 0.31 l
0.55 0.31 l
0.55 0.31 l
0.55 0.31 l
0.55 0.31 l
0.56 0.31 l
0.55 0.30 l
0.55 0.31 l
0.55 0.30 l
0.55 0.31 l
0.56 0.30 l
0.55 0.30 l
0.55 0.30 l
0.55 0.30 l
0.56 0.30 l
0.55 0.30 l
0.55 0.30 l
0.55 0.29 l
0.55 0.30 l
0.56 0.30 l
0.55 0.29 l
0.55 0.29 l
0.55 0.30 l
0.55 0.29 l
0.56 0.29 l
0.55 0.29 l
0.55 0.29 l
0.55 0.28 l
0.55 0.29 l
0.56 0.29 l
0.55 0.28 l
0.55 0.29 l
0.55 0.28 l
0.55 0.29 l
0.56 0.28 l
0.55 0.28 l
0.55 0.28 l
0.55 0.28 l
0.55 0.28 l
0.56 0.28 l
0.55 0.28 l
0.55 0.27 l
0.55 0.28 l
0.55 0.27 l
0.56 0.28 l
0.55 0.27 l
0.55 0.27 l
0.55 0.28 l
0.55 0.27 l
0.56 0.27 l
0.55 0.27 l
0.55 0.27 l
0.55 0.26 l
0.56 0.27 l
0.55 0.27 l
0.55 0.26 l
0.55 0.27 l
0.55 0.26 l
0.56 0.27 l
0.55 0.26 l
0.55 0.26 l
0.55 0.26 l
0.55 0.26 l
0.56 0.26 l
0.55 0.26 l
0.55 0.26 l
0.55 0.26 l
0.55 0.25 l
0.56 0.26 l
0.55 0.25 l
0.55 0.26 l
0.55 0.25 l
0.55 0.26 l
0.56 0.25 l
0.55 0.25 l
0.55 0.25 l
0.55 0.25 l
0.55 0.25 l
0.56 0.25 l
0.55 0.24 l
0.55 0.25 l
0.55 0.25 l
0.55 0.24 l
0.56 0.25 l
0.55 0.24 l
0.55 0.25 l
0.55 0.24 l
0.56 0.24 l
0.55 0.24 l
0.55 0.24 l
0.55 0.24 l
191.53 144.09 lineto
0.56 0.24 l
0.55 0.24 l
0.55 0.24 l
0.55 0.23 l
0.55 0.24 l
0.56 0.23 l
0.55 0.24 l
0.55 0.23 l
0.55 0.24 l
0.55 0.23 l
0.56 0.23 l
0.55 0.23 l
0.55 0.23 l
0.55 0.23 l
0.55 0.23 l
0.56 0.23 l
0.55 0.23 l
0.55 0.22 l
0.55 0.23 l
0.55 0.23 l
0.56 0.22 l
0.55 0.23 l
0.55 0.22 l
0.55 0.22 l
0.55 0.23 l
0.56 0.22 l
0.55 0.22 l
0.55 0.22 l
0.55 0.22 l
0.55 0.22 l
0.56 0.22 l
0.55 0.22 l
0.55 0.21 l
0.55 0.22 l
0.56 0.22 l
0.55 0.21 l
0.55 0.22 l
0.55 0.21 l
0.55 0.21 l
0.56 0.22 l
0.55 0.21 l
0.55 0.21 l
0.55 0.21 l
0.55 0.21 l
0.56 0.21 l
0.55 0.21 l
0.55 0.21 l
0.55 0.21 l
0.55 0.21 l
0.56 0.20 l
0.55 0.21 l
0.55 0.21 l
0.55 0.20 l
0.55 0.21 l
0.56 0.20 l
0.55 0.20 l
0.55 0.21 l
0.55 0.20 l
0.55 0.20 l
0.56 0.20 l
0.55 0.20 l
0.55 0.20 l
0.55 0.20 l
0.55 0.20 l
0.56 0.20 l
0.55 0.20 l
0.55 0.19 l
0.55 0.20 l
0.56 0.20 l
0.55 0.19 l
0.55 0.20 l
0.55 0.19 l
0.55 0.19 l
0.56 0.20 l
0.55 0.19 l
0.55 0.19 l
0.55 0.19 l
0.55 0.19 l
0.56 0.19 l
0.55 0.19 l
0.55 0.19 l
0.55 0.19 l
0.55 0.19 l
0.56 0.19 l
0.55 0.18 l
0.55 0.19 l
0.55 0.19 l
0.55 0.18 l
0.56 0.19 l
0.55 0.18 l
0.55 0.18 l
0.55 0.19 l
0.55 0.18 l
0.56 0.18 l
0.55 0.18 l
0.55 0.18 l
0.55 0.18 l
0.55 0.18 l
0.56 0.18 l
246.74 164.83 lineto
0.55 0.18 l
0.55 0.18 l
0.55 0.18 l
0.56 0.17 l
0.55 0.18 l
0.55 0.18 l
0.55 0.17 l
0.56 0.18 l
0.55 0.17 l
0.55 0.17 l
0.55 0.18 l
0.55 0.17 l
0.56 0.17 l
0.55 0.17 l
0.55 0.18 l
0.55 0.17 l
0.55 0.17 l
0.56 0.17 l
0.55 0.17 l
0.55 0.17 l
0.55 0.16 l
0.55 0.17 l
0.56 0.17 l
0.55 0.17 l
0.55 0.16 l
0.55 0.17 l
0.55 0.16 l
0.56 0.17 l
0.55 0.16 l
0.55 0.17 l
0.55 0.16 l
0.55 0.16 l
0.56 0.17 l
0.55 0.16 l
0.55 0.16 l
0.55 0.16 l
0.55 0.16 l
0.56 0.16 l
0.55 0.16 l
0.55 0.16 l
0.55 0.16 l
0.56 0.16 l
0.55 0.16 l
0.55 0.16 l
0.55 0.15 l
0.55 0.16 l
0.56 0.16 l
0.55 0.15 l
0.55 0.16 l
0.55 0.15 l
0.55 0.16 l
0.56 0.15 l
0.55 0.15 l
0.55 0.16 l
0.55 0.15 l
0.55 0.15 l
0.56 0.15 l
0.55 0.15 l
0.55 0.15 l
0.55 0.15 l
0.55 0.15 l
0.56 0.15 l
0.55 0.15 l
0.55 0.15 l
0.55 0.15 l
0.55 0.15 l
0.56 0.14 l
0.55 0.15 l
0.55 0.15 l
0.55 0.14 l
0.55 0.15 l
0.56 0.14 l
0.55 0.15 l
0.55 0.14 l
0.55 0.15 l
0.56 0.14 l
0.55 0.14 l
0.55 0.15 l
0.55 0.14 l
0.55 0.14 l
0.56 0.14 l
0.55 0.14 l
0.55 0.14 l
0.55 0.14 l
0.55 0.14 l
0.56 0.14 l
0.55 0.14 l
0.55 0.14 l
0.55 0.14 l
0.55 0.14 l
0.56 0.14 l
0.55 0.13 l
0.55 0.14 l
0.55 0.13 l
0.55 0.14 l
0.56 0.14 l
0.55 0.13 l
0.55 0.14 l
0.55 0.13 l
301.94 180.34 lineto
0.56 0.14 l
0.55 0.13 l
0.55 0.13 l
0.55 0.14 l
0.55 0.13 l
0.56 0.13 l
0.55 0.13 l
0.55 0.13 l
0.55 0.13 l
0.55 0.13 l
0.56 0.13 l
0.55 0.13 l
0.55 0.13 l
0.55 0.13 l
0.56 0.13 l
0.55 0.12 l
0.55 0.13 l
0.55 0.13 l
0.55 0.12 l
0.56 0.13 l
0.55 0.13 l
0.55 0.12 l
0.55 0.13 l
0.55 0.12 l
0.56 0.13 l
0.55 0.12 l
0.55 0.13 l
0.55 0.12 l
0.55 0.12 l
0.56 0.12 l
0.55 0.13 l
0.55 0.12 l
0.55 0.12 l
0.55 0.12 l
0.56 0.12 l
0.55 0.12 l
0.55 0.12 l
0.55 0.12 l
0.55 0.12 l
0.56 0.12 l
0.55 0.12 l
0.55 0.12 l
0.55 0.12 l
0.55 0.12 l
0.56 0.11 l
0.55 0.12 l
0.55 0.12 l
0.55 0.11 l
0.56 0.12 l
0.55 0.11 l
0.55 0.12 l
0.55 0.12 l
0.55 0.11 l
0.56 0.11 l
0.55 0.12 l
0.55 0.11 l
0.55 0.12 l
0.55 0.11 l
0.56 0.11 l
0.55 0.11 l
0.55 0.12 l
0.55 0.11 l
0.55 0.11 l
0.56 0.11 l
0.55 0.11 l
0.55 0.11 l
0.55 0.11 l
0.55 0.11 l
0.56 0.11 l
0.55 0.11 l
0.55 0.11 l
0.55 0.11 l
0.55 0.11 l
0.56 0.10 l
0.55 0.11 l
0.55 0.11 l
0.55 0.11 l
0.55 0.10 l
0.56 0.11 l
0.55 0.11 l
0.55 0.10 l
0.55 0.11 l
0.55 0.10 l
0.56 0.11 l
0.55 0.10 l
0.55 0.11 l
0.55 0.10 l
0.56 0.10 l
0.55 0.11 l
0.55 0.10 l
0.55 0.10 l
0.55 0.11 l
0.56 0.10 l
0.55 0.10 l
0.55 0.10 l
0.55 0.10 l
0.55 0.10 l
0.56 0.10 l
0.55 0.10 l
357.15 191.94 lineto
0.55 0.10 l
0.55 0.10 l
0.56 0.10 l
0.55 0.10 l
0.55 0.10 l
0.55 0.10 l
0.55 0.10 l
0.56 0.10 l
0.55 0.09 l
0.55 0.10 l
0.55 0.10 l
0.55 0.09 l
0.56 0.10 l
0.55 0.10 l
0.55 0.09 l
0.55 0.10 l
0.55 0.09 l
0.56 0.10 l
0.55 0.09 l
0.55 0.10 l
0.55 0.09 l
0.56 0.10 l
0.55 0.09 l
0.55 0.09 l
0.55 0.10 l
0.55 0.09 l
0.56 0.09 l
0.55 0.09 l
0.55 0.09 l
0.55 0.10 l
0.55 0.09 l
0.56 0.09 l
0.55 0.09 l
0.55 0.09 l
0.55 0.09 l
0.55 0.09 l
0.56 0.09 l
0.55 0.09 l
0.55 0.09 l
0.55 0.09 l
0.55 0.09 l
0.56 0.09 l
0.55 0.09 l
0.55 0.08 l
0.55 0.09 l
0.55 0.09 l
0.56 0.09 l
0.55 0.08 l
0.55 0.09 l
0.55 0.09 l
0.55 0.08 l
0.56 0.09 l
0.55 0.09 l
0.55 0.08 l
0.55 0.09 l
0.55 0.08 l
0.56 0.09 l
0.55 0.08 l
0.55 0.08 l
0.55 0.09 l
0.56 0.08 l
0.55 0.09 l
0.55 0.08 l
0.55 0.08 l
0.55 0.09 l
0.56 0.08 l
0.55 0.08 l
0.55 0.08 l
0.55 0.09 l
0.55 0.08 l
0.56 0.08 l
0.55 0.08 l
0.55 0.08 l
0.55 0.08 l
0.55 0.08 l
0.56 0.08 l
0.55 0.08 l
0.55 0.08 l
0.55 0.08 l
0.55 0.08 l
0.56 0.08 l
0.55 0.08 l
0.55 0.08 l
0.55 0.08 l
0.55 0.07 l
0.56 0.08 l
0.55 0.08 l
0.55 0.08 l
0.55 0.07 l
0.55 0.08 l
0.56 0.08 l
0.55 0.08 l
0.55 0.07 l
0.55 0.08 l
0.56 0.07 l
0.55 0.08 l
0.55 0.08 l
0.55 0.07 l
0.55 0.08 l
412.36 200.62 lineto
0.55 0.08 l
0.55 0.07 l
0.55 0.07 l
0.55 0.08 l
0.56 0.07 l
0.55 0.08 l
0.55 0.07 l
0.55 0.07 l
0.55 0.07 l
0.56 0.08 l
0.55 0.07 l
0.55 0.07 l
0.55 0.07 l
0.55 0.08 l
0.56 0.07 l
0.55 0.07 l
0.55 0.07 l
0.55 0.07 l
0.55 0.07 l
0.56 0.07 l
0.55 0.07 l
0.55 0.07 l
0.55 0.07 l
0.55 0.07 l
0.56 0.07 l
0.55 0.07 l
0.55 0.07 l
0.55 0.07 l
0.56 0.07 l
0.55 0.07 l
0.55 0.07 l
0.55 0.07 l
0.55 0.06 l
0.56 0.07 l
0.55 0.07 l
0.55 0.07 l
0.55 0.06 l
0.55 0.07 l
0.56 0.07 l
0.55 0.06 l
0.55 0.07 l
0.55 0.07 l
0.55 0.06 l
0.56 0.07 l
0.55 0.06 l
0.55 0.07 l
0.55 0.07 l
0.55 0.06 l
0.56 0.07 l
0.55 0.06 l
0.55 0.06 l
0.55 0.07 l
0.55 0.06 l
0.56 0.07 l
0.55 0.06 l
0.55 0.06 l
0.55 0.07 l
0.55 0.06 l
0.56 0.06 l
0.55 0.07 l
0.55 0.06 l
0.55 0.06 l
0.55 0.06 l
0.56 0.07 l
0.55 0.06 l
0.55 0.06 l
0.55 0.06 l
0.56 0.06 l
0.55 0.07 l
0.55 0.06 l
0.55 0.06 l
0.55 0.06 l
0.56 0.06 l
0.55 0.06 l
0.55 0.06 l
0.55 0.06 l
0.55 0.06 l
0.56 0.06 l
0.55 0.06 l
0.55 0.06 l
0.55 0.06 l
0.55 0.06 l
0.56 0.05 l
0.55 0.06 l
0.55 0.06 l
0.55 0.06 l
0.55 0.06 l
0.56 0.06 l
0.55 0.05 l
0.55 0.06 l
0.55 0.06 l
0.55 0.06 l
0.56 0.05 l
0.55 0.06 l
0.55 0.06 l
0.55 0.05 l
0.55 0.06 l
0.56 0.06 l
0.55 0.05 l
467.56 207.11 lineto
0.55 0.05 l
0.56 0.06 l
0.55 0.06 l
0.55 0.05 l
0.55 0.06 l
0.55 0.05 l
0.56 0.06 l
0.55 0.05 l
0.55 0.06 l
0.55 0.05 l
0.55 0.05 l
0.56 0.06 l
0.55 0.05 l
0.55 0.06 l
0.55 0.05 l
0.55 0.05 l
0.56 0.06 l
0.55 0.05 l
0.55 0.05 l
0.55 0.06 l
0.55 0.05 l
0.56 0.05 l
0.55 0.05 l
0.55 0.06 l
0.55 0.05 l
0.55 0.05 l
0.56 0.05 l
0.55 0.05 l
0.55 0.05 l
0.55 0.06 l
0.55 0.05 l
0.56 0.05 l
0.55 0.05 l
0.55 0.05 l
0.55 0.05 l
0.55 0.05 l
0.56 0.05 l
0.55 0.05 l
0.55 0.05 l
0.55 0.05 l
0.56 0.05 l
0.55 0.05 l
0.55 0.05 l
0.55 0.05 l
0.55 0.05 l
0.56 0.05 l
0.55 0.05 l
0.55 0.04 l
0.55 0.05 l
0.55 0.05 l
0.56 0.05 l
0.55 0.05 l
0.55 0.05 l
0.55 0.04 l
0.55 0.05 l
0.56 0.05 l
0.55 0.05 l
0.55 0.04 l
0.55 0.05 l
0.55 0.05 l
0.56 0.04 l
0.55 0.05 l
0.55 0.05 l
0.55 0.04 l
0.55 0.05 l
0.56 0.05 l
0.55 0.04 l
0.55 0.05 l
0.55 0.05 l
0.55 0.04 l
0.56 0.05 l
0.55 0.04 l
0.55 0.05 l
0.55 0.04 l
0.56 0.05 l
0.55 0.04 l
0.55 0.05 l
0.55 0.04 l
0.55 0.05 l
0.56 0.04 l
0.55 0.04 l
0.55 0.05 l
0.55 0.04 l
0.55 0.05 l
0.56 0.04 l
0.55 0.04 l
0.55 0.05 l
0.55 0.04 l
0.55 0.04 l
0.56 0.05 l
0.55 0.04 l
0.55 0.04 l
0.55 0.05 l
0.55 0.04 l
0.56 0.04 l
0.55 0.04 l
0.55 0.05 l
0.55 0.04 l
0.55 0.04 l
522.77 211.96 lineto
0.55 0.04 l
0.55 0.05 l
0.55 0.04 l
0.55 0.04 l
0.56 0.04 l
0.55 0.04 l
0.55 0.04 l
0.55 0.04 l
0.55 0.04 l
0.56 0.04 l
0.55 0.04 l
0.55 0.05 l
0.55 0.04 l
0.56 0.04 l
0.55 0.04 l
0.55 0.04 l
0.55 0.04 l
0.55 0.04 l
0.56 0.03 l
0.55 0.04 l
0.55 0.04 l
0.55 0.04 l
0.55 0.04 l
0.56 0.04 l
0.55 0.04 l
0.55 0.04 l
0.55 0.04 l
0.55 0.04 l
0.56 0.03 l
0.55 0.04 l
0.55 0.04 l
0.55 0.04 l
0.55 0.04 l
0.56 0.04 l
0.55 0.03 l
0.55 0.04 l
0.55 0.04 l
0.55 0.04 l
0.56 0.03 l
0.55 0.04 l
0.55 0.04 l
0.55 0.04 l
0.55 0.03 l
0.56 0.04 l
0.55 0.04 l
0.55 0.03 l
0.55 0.04 l
0.56 0.04 l
0.55 0.03 l
0.55 0.04 l
0.55 0.03 l
0.55 0.04 l
0.56 0.04 l
0.55 0.03 l
0.55 0.04 l
0.55 0.03 l
0.55 0.04 l
0.56 0.03 l
0.55 0.04 l
0.55 0.03 l
0.55 0.04 l
0.55 0.03 l
0.56 0.04 l
0.55 0.03 l
0.55 0.04 l
0.55 0.03 l
0.55 0.04 l
0.56 0.03 l
0.55 0.04 l
0.55 0.03 l
0.55 0.03 l
0.55 0.04 l
0.56 0.03 l
0.55 0.04 l
0.55 0.03 l
0.55 0.03 l
0.55 0.04 l
0.56 0.03 l
0.55 0.03 l
0.55 0.04 l
0.55 0.03 l
0.56 0.03 l
0.55 0.04 l
0.55 0.03 l
0.55 0.03 l
0.55 0.03 l
0.56 0.04 l
0.55 0.03 l
0.55 0.03 l
0.55 0.03 l
0.55 0.04 l
0.56 0.03 l
0.55 0.03 l
0.55 0.03 l
0.55 0.03 l
0.55 0.04 l
0.56 0.03 l
0.55 0.03 l
0.55 0.03 l
577.97 215.59 lineto
0.55 0.03 l
0.56 0.03 l
0.55 0.03 l
0.55 0.04 l
0.55 0.03 l
0.55 0.03 l
0.56 0.03 l
0.55 0.03 l
0.55 0.03 l
0.55 0.03 l
0.55 0.03 l
0.56 0.03 l
0.55 0.03 l
0.55 0.03 l
0.55 0.03 l
0.55 0.03 l
0.56 0.03 l
0.55 0.03 l
0.55 0.03 l
0.55 0.03 l
0.56 0.03 l
0.55 0.03 l
0.55 0.03 l
0.55 0.03 l
0.55 0.03 l
0.56 0.02 l
0.55 0.03 l
0.55 0.03 l
0.55 0.03 l
0.55 0.03 l
0.56 0.03 l
0.55 0.03 l
0.55 0.03 l
0.55 0.02 l
0.55 0.03 l
0.56 0.03 l
0.55 0.03 l
0.55 0.03 l
0.55 0.02 l
0.55 0.03 l
0.56 0.03 l
0.55 0.03 l
0.55 0.03 l
0.55 0.02 l
0.55 0.03 l
0.56 0.03 l
0.55 0.03 l
0.55 0.02 l
0.55 0.03 l
0.55 0.03 l
0.56 0.02 l
0.55 0.03 l
0.55 0.03 l
0.55 0.02 l
0.56 0.03 l
0.55 0.03 l
0.55 0.02 l
0.55 0.03 l
0.55 0.03 l
0.56 0.02 l
0.55 0.03 l
0.55 0.03 l
0.55 0.02 l
0.55 0.03 l
0.56 0.02 l
0.55 0.03 l
0.55 0.03 l
0.55 0.02 l
0.55 0.03 l
0.56 0.02 l
0.55 0.03 l
0.55 0.02 l
0.55 0.03 l
0.55 0.02 l
0.56 0.03 l
0.55 0.02 l
0.55 0.03 l
0.55 0.02 l
0.55 0.03 l
0.56 0.02 l
0.55 0.03 l
0.55 0.02 l
0.55 0.03 l
0.55 0.02 l
0.56 0.03 l
0.55 0.02 l
0.55 0.03 l
0.55 0.02 l
0.55 0.02 l
0.56 0.03 l
0.55 0.02 l
0.55 0.03 l
0.55 0.02 l
0.56 0.02 l
0.55 0.03 l
0.55 0.02 l
0.55 0.03 l
0.55 0.02 l
0.56 0.02 l
currentpoint o m
633.18 218.31 lineto
o
0 0 1 srgb
np
81.12 79.28 m
0.55 0.31 l
0.56 0.30 l
0.55 0.31 l
0.55 0.30 l
0.55 0.30 l
0.55 0.30 l
0.56 0.30 l
0.55 0.30 l
0.55 0.30 l
0.55 0.30 l
0.55 0.30 l
0.56 0.30 l
0.55 0.30 l
0.55 0.29 l
0.55 0.30 l
0.56 0.29 l
0.55 0.30 l
0.55 0.29 l
0.55 0.30 l
0.55 0.29 l
0.56 0.29 l
0.55 0.29 l
0.55 0.29 l
0.55 0.29 l
0.55 0.29 l
0.56 0.29 l
0.55 0.29 l
0.55 0.29 l
0.55 0.29 l
0.55 0.29 l
0.56 0.28 l
0.55 0.29 l
0.55 0.28 l
0.55 0.29 l
0.55 0.28 l
0.56 0.28 l
0.55 0.29 l
0.55 0.28 l
0.55 0.28 l
0.55 0.28 l
0.56 0.28 l
0.55 0.28 l
0.55 0.28 l
0.55 0.28 l
0.55 0.28 l
0.56 0.28 l
0.55 0.27 l
0.55 0.28 l
0.55 0.28 l
0.55 0.27 l
0.56 0.28 l
0.55 0.27 l
0.55 0.27 l
0.55 0.28 l
0.56 0.27 l
0.55 0.27 l
0.55 0.27 l
0.55 0.27 l
0.55 0.27 l
0.56 0.27 l
0.55 0.27 l
0.55 0.27 l
0.55 0.27 l
0.55 0.27 l
0.56 0.26 l
0.55 0.27 l
0.55 0.26 l
0.55 0.27 l
0.55 0.26 l
0.56 0.27 l
0.55 0.26 l
0.55 0.26 l
0.55 0.27 l
0.55 0.26 l
0.56 0.26 l
0.55 0.26 l
0.55 0.26 l
0.55 0.26 l
0.55 0.26 l
0.56 0.26 l
0.55 0.26 l
0.55 0.25 l
0.55 0.26 l
0.55 0.26 l
0.56 0.25 l
0.55 0.26 l
0.55 0.25 l
0.55 0.26 l
0.56 0.25 l
0.55 0.26 l
0.55 0.25 l
0.55 0.25 l
0.55 0.25 l
0.56 0.25 l
0.55 0.26 l
0.55 0.25 l
0.55 0.25 l
0.55 0.24 l
0.56 0.25 l
136.33 106.83 lineto
0.55 0.25 l
0.55 0.25 l
0.55 0.24 l
0.56 0.25 l
0.55 0.24 l
0.55 0.25 l
0.55 0.24 l
0.55 0.25 l
0.56 0.24 l
0.55 0.24 l
0.55 0.25 l
0.55 0.24 l
0.55 0.24 l
0.56 0.24 l
0.55 0.24 l
0.55 0.24 l
0.55 0.24 l
0.55 0.24 l
0.56 0.24 l
0.55 0.24 l
0.55 0.24 l
0.55 0.23 l
0.56 0.24 l
0.55 0.24 l
0.55 0.23 l
0.55 0.24 l
0.55 0.23 l
0.56 0.23 l
0.55 0.24 l
0.55 0.23 l
0.55 0.23 l
0.55 0.24 l
0.56 0.23 l
0.55 0.23 l
0.55 0.23 l
0.55 0.23 l
0.55 0.23 l
0.56 0.23 l
0.55 0.23 l
0.55 0.23 l
0.55 0.22 l
0.55 0.23 l
0.56 0.23 l
0.55 0.23 l
0.55 0.22 l
0.55 0.23 l
0.55 0.22 l
0.56 0.23 l
0.55 0.22 l
0.55 0.23 l
0.55 0.22 l
0.55 0.22 l
0.56 0.22 l
0.55 0.23 l
0.55 0.22 l
0.55 0.22 l
0.55 0.22 l
0.56 0.22 l
0.55 0.22 l
0.55 0.22 l
0.55 0.22 l
0.56 0.21 l
0.55 0.22 l
0.55 0.22 l
0.55 0.22 l
0.55 0.21 l
0.56 0.22 l
0.55 0.21 l
0.55 0.22 l
0.55 0.21 l
0.55 0.22 l
0.56 0.21 l
0.55 0.21 l
0.55 0.22 l
0.55 0.21 l
0.55 0.21 l
0.56 0.21 l
0.55 0.21 l
0.55 0.21 l
0.55 0.22 l
0.55 0.20 l
0.56 0.21 l
0.55 0.21 l
0.55 0.21 l
0.55 0.21 l
0.55 0.21 l
0.56 0.20 l
0.55 0.21 l
0.55 0.21 l
0.55 0.20 l
0.55 0.21 l
0.56 0.20 l
0.55 0.21 l
0.55 0.20 l
0.55 0.21 l
0.56 0.20 l
0.55 0.20 l
0.55 0.21 l
0.55 0.20 l
191.53 129.22 lineto
0.56 0.20 l
0.55 0.20 l
0.55 0.20 l
0.55 0.20 l
0.55 0.20 l
0.56 0.20 l
0.55 0.20 l
0.55 0.20 l
0.55 0.20 l
0.55 0.19 l
0.56 0.20 l
0.55 0.20 l
0.55 0.19 l
0.55 0.20 l
0.55 0.19 l
0.56 0.20 l
0.55 0.19 l
0.55 0.20 l
0.55 0.19 l
0.55 0.20 l
0.56 0.19 l
0.55 0.19 l
0.55 0.19 l
0.55 0.20 l
0.55 0.19 l
0.56 0.19 l
0.55 0.19 l
0.55 0.19 l
0.55 0.19 l
0.55 0.19 l
0.56 0.19 l
0.55 0.19 l
0.55 0.19 l
0.55 0.18 l
0.56 0.19 l
0.55 0.19 l
0.55 0.18 l
0.55 0.19 l
0.55 0.19 l
0.56 0.18 l
0.55 0.19 l
0.55 0.18 l
0.55 0.19 l
0.55 0.18 l
0.56 0.18 l
0.55 0.19 l
0.55 0.18 l
0.55 0.18 l
0.55 0.19 l
0.56 0.18 l
0.55 0.18 l
0.55 0.18 l
0.55 0.18 l
0.55 0.18 l
0.56 0.18 l
0.55 0.18 l
0.55 0.18 l
0.55 0.18 l
0.55 0.18 l
0.56 0.18 l
0.55 0.17 l
0.55 0.18 l
0.55 0.18 l
0.55 0.17 l
0.56 0.18 l
0.55 0.18 l
0.55 0.17 l
0.55 0.18 l
0.56 0.17 l
0.55 0.18 l
0.55 0.17 l
0.55 0.17 l
0.55 0.18 l
0.56 0.17 l
0.55 0.17 l
0.55 0.17 l
0.55 0.18 l
0.55 0.17 l
0.56 0.17 l
0.55 0.17 l
0.55 0.17 l
0.55 0.17 l
0.55 0.17 l
0.56 0.17 l
0.55 0.17 l
0.55 0.17 l
0.55 0.17 l
0.55 0.16 l
0.56 0.17 l
0.55 0.17 l
0.55 0.17 l
0.55 0.16 l
0.55 0.17 l
0.56 0.17 l
0.55 0.16 l
0.55 0.17 l
0.55 0.16 l
0.55 0.17 l
0.56 0.16 l
246.74 147.41 lineto
0.55 0.17 l
0.55 0.16 l
0.55 0.16 l
0.56 0.17 l
0.55 0.16 l
0.55 0.16 l
0.55 0.16 l
0.56 0.16 l
0.55 0.16 l
0.55 0.16 l
0.55 0.16 l
0.55 0.16 l
0.56 0.16 l
0.55 0.16 l
0.55 0.16 l
0.55 0.16 l
0.55 0.16 l
0.56 0.16 l
0.55 0.15 l
0.55 0.16 l
0.55 0.16 l
0.55 0.15 l
0.56 0.16 l
0.55 0.16 l
0.55 0.15 l
0.55 0.16 l
0.55 0.15 l
0.56 0.16 l
0.55 0.15 l
0.55 0.16 l
0.55 0.15 l
0.55 0.15 l
0.56 0.16 l
0.55 0.15 l
0.55 0.15 l
0.55 0.15 l
0.55 0.16 l
0.56 0.15 l
0.55 0.15 l
0.55 0.15 l
0.55 0.15 l
0.56 0.15 l
0.55 0.15 l
0.55 0.15 l
0.55 0.15 l
0.55 0.15 l
0.56 0.15 l
0.55 0.14 l
0.55 0.15 l
0.55 0.15 l
0.55 0.15 l
0.56 0.14 l
0.55 0.15 l
0.55 0.15 l
0.55 0.14 l
0.55 0.15 l
0.56 0.15 l
0.55 0.14 l
0.55 0.15 l
0.55 0.14 l
0.55 0.15 l
0.56 0.14 l
0.55 0.14 l
0.55 0.15 l
0.55 0.14 l
0.55 0.14 l
0.56 0.15 l
0.55 0.14 l
0.55 0.14 l
0.55 0.14 l
0.55 0.14 l
0.56 0.14 l
0.55 0.15 l
0.55 0.14 l
0.55 0.14 l
0.56 0.14 l
0.55 0.14 l
0.55 0.14 l
0.55 0.13 l
0.55 0.14 l
0.56 0.14 l
0.55 0.14 l
0.55 0.14 l
0.55 0.14 l
0.55 0.13 l
0.56 0.14 l
0.55 0.14 l
0.55 0.13 l
0.55 0.14 l
0.55 0.14 l
0.56 0.13 l
0.55 0.14 l
0.55 0.13 l
0.55 0.14 l
0.55 0.13 l
0.56 0.14 l
0.55 0.13 l
0.55 0.13 l
0.55 0.14 l
301.94 162.20 lineto
0.56 0.13 l
0.55 0.14 l
0.55 0.13 l
0.55 0.13 l
0.55 0.13 l
0.56 0.13 l
0.55 0.14 l
0.55 0.13 l
0.55 0.13 l
0.55 0.13 l
0.56 0.13 l
0.55 0.13 l
0.55 0.13 l
0.55 0.13 l
0.56 0.13 l
0.55 0.12 l
0.55 0.13 l
0.55 0.13 l
0.55 0.13 l
0.56 0.13 l
0.55 0.12 l
0.55 0.13 l
0.55 0.13 l
0.55 0.13 l
0.56 0.12 l
0.55 0.13 l
0.55 0.12 l
0.55 0.13 l
0.55 0.13 l
0.56 0.12 l
0.55 0.13 l
0.55 0.12 l
0.55 0.12 l
0.55 0.13 l
0.56 0.12 l
0.55 0.13 l
0.55 0.12 l
0.55 0.12 l
0.55 0.13 l
0.56 0.12 l
0.55 0.12 l
0.55 0.12 l
0.55 0.12 l
0.55 0.13 l
0.56 0.12 l
0.55 0.12 l
0.55 0.12 l
0.55 0.12 l
0.56 0.12 l
0.55 0.12 l
0.55 0.12 l
0.55 0.12 l
0.55 0.12 l
0.56 0.12 l
0.55 0.12 l
0.55 0.12 l
0.55 0.11 l
0.55 0.12 l
0.56 0.12 l
0.55 0.12 l
0.55 0.11 l
0.55 0.12 l
0.55 0.12 l
0.56 0.12 l
0.55 0.11 l
0.55 0.12 l
0.55 0.11 l
0.55 0.12 l
0.56 0.11 l
0.55 0.12 l
0.55 0.12 l
0.55 0.11 l
0.55 0.11 l
0.56 0.12 l
0.55 0.11 l
0.55 0.12 l
0.55 0.11 l
0.55 0.11 l
0.56 0.12 l
0.55 0.11 l
0.55 0.11 l
0.55 0.11 l
0.55 0.12 l
0.56 0.11 l
0.55 0.11 l
0.55 0.11 l
0.55 0.11 l
0.56 0.11 l
0.55 0.11 l
0.55 0.11 l
0.55 0.11 l
0.55 0.12 l
0.56 0.10 l
0.55 0.11 l
0.55 0.11 l
0.55 0.11 l
0.55 0.11 l
0.56 0.11 l
0.55 0.11 l
357.15 174.22 lineto
0.55 0.11 l
0.55 0.10 l
0.56 0.11 l
0.55 0.11 l
0.55 0.11 l
0.55 0.10 l
0.55 0.11 l
0.56 0.11 l
0.55 0.10 l
0.55 0.11 l
0.55 0.10 l
0.55 0.11 l
0.56 0.10 l
0.55 0.11 l
0.55 0.10 l
0.55 0.11 l
0.55 0.10 l
0.56 0.11 l
0.55 0.10 l
0.55 0.11 l
0.55 0.10 l
0.56 0.10 l
0.55 0.11 l
0.55 0.10 l
0.55 0.10 l
0.55 0.10 l
0.56 0.11 l
0.55 0.10 l
0.55 0.10 l
0.55 0.10 l
0.55 0.10 l
0.56 0.11 l
0.55 0.10 l
0.55 0.10 l
0.55 0.10 l
0.55 0.10 l
0.56 0.10 l
0.55 0.10 l
0.55 0.10 l
0.55 0.10 l
0.55 0.10 l
0.56 0.10 l
0.55 0.10 l
0.55 0.09 l
0.55 0.10 l
0.55 0.10 l
0.56 0.10 l
0.55 0.10 l
0.55 0.10 l
0.55 0.09 l
0.55 0.10 l
0.56 0.10 l
0.55 0.09 l
0.55 0.10 l
0.55 0.10 l
0.55 0.09 l
0.56 0.10 l
0.55 0.10 l
0.55 0.09 l
0.55 0.10 l
0.56 0.09 l
0.55 0.10 l
0.55 0.09 l
0.55 0.10 l
0.55 0.09 l
0.56 0.10 l
0.55 0.09 l
0.55 0.10 l
0.55 0.09 l
0.55 0.09 l
0.56 0.10 l
0.55 0.09 l
0.55 0.09 l
0.55 0.10 l
0.55 0.09 l
0.56 0.09 l
0.55 0.09 l
0.55 0.10 l
0.55 0.09 l
0.55 0.09 l
0.56 0.09 l
0.55 0.09 l
0.55 0.09 l
0.55 0.09 l
0.55 0.09 l
0.56 0.10 l
0.55 0.09 l
0.55 0.09 l
0.55 0.09 l
0.55 0.09 l
0.56 0.09 l
0.55 0.08 l
0.55 0.09 l
0.55 0.09 l
0.56 0.09 l
0.55 0.09 l
0.55 0.09 l
0.55 0.09 l
0.55 0.09 l
412.36 183.98 lineto
0.55 0.09 l
0.55 0.09 l
0.55 0.09 l
0.55 0.08 l
0.56 0.09 l
0.55 0.09 l
0.55 0.08 l
0.55 0.09 l
0.55 0.09 l
0.56 0.08 l
0.55 0.09 l
0.55 0.09 l
0.55 0.08 l
0.55 0.09 l
0.56 0.08 l
0.55 0.09 l
0.55 0.08 l
0.55 0.09 l
0.55 0.08 l
0.56 0.09 l
0.55 0.08 l
0.55 0.08 l
0.55 0.09 l
0.55 0.08 l
0.56 0.08 l
0.55 0.09 l
0.55 0.08 l
0.55 0.08 l
0.56 0.09 l
0.55 0.08 l
0.55 0.08 l
0.55 0.08 l
0.55 0.09 l
0.56 0.08 l
0.55 0.08 l
0.55 0.08 l
0.55 0.08 l
0.55 0.08 l
0.56 0.09 l
0.55 0.08 l
0.55 0.08 l
0.55 0.08 l
0.55 0.08 l
0.56 0.08 l
0.55 0.08 l
0.55 0.08 l
0.55 0.08 l
0.55 0.08 l
0.56 0.08 l
0.55 0.08 l
0.55 0.08 l
0.55 0.08 l
0.55 0.07 l
0.56 0.08 l
0.55 0.08 l
0.55 0.08 l
0.55 0.08 l
0.55 0.08 l
0.56 0.07 l
0.55 0.08 l
0.55 0.08 l
0.55 0.08 l
0.55 0.07 l
0.56 0.08 l
0.55 0.08 l
0.55 0.07 l
0.55 0.08 l
0.56 0.08 l
0.55 0.07 l
0.55 0.08 l
0.55 0.08 l
0.55 0.07 l
0.56 0.08 l
0.55 0.07 l
0.55 0.08 l
0.55 0.07 l
0.55 0.08 l
0.56 0.07 l
0.55 0.08 l
0.55 0.07 l
0.55 0.08 l
0.55 0.07 l
0.56 0.07 l
0.55 0.08 l
0.55 0.07 l
0.55 0.08 l
0.55 0.07 l
0.56 0.07 l
0.55 0.08 l
0.55 0.07 l
0.55 0.07 l
0.55 0.07 l
0.56 0.08 l
0.55 0.07 l
0.55 0.07 l
0.55 0.07 l
0.55 0.08 l
0.56 0.07 l
0.55 0.07 l
467.56 191.92 lineto
0.55 0.07 l
0.56 0.07 l
0.55 0.07 l
0.55 0.07 l
0.55 0.08 l
0.55 0.07 l
0.56 0.07 l
0.55 0.07 l
0.55 0.07 l
0.55 0.07 l
0.55 0.07 l
0.56 0.07 l
0.55 0.07 l
0.55 0.07 l
0.55 0.07 l
0.55 0.06 l
0.56 0.07 l
0.55 0.07 l
0.55 0.07 l
0.55 0.07 l
0.55 0.07 l
0.56 0.07 l
0.55 0.06 l
0.55 0.07 l
0.55 0.07 l
0.55 0.07 l
0.56 0.07 l
0.55 0.06 l
0.55 0.07 l
0.55 0.07 l
0.55 0.06 l
0.56 0.07 l
0.55 0.07 l
0.55 0.07 l
0.55 0.06 l
0.55 0.07 l
0.56 0.06 l
0.55 0.07 l
0.55 0.07 l
0.55 0.06 l
0.56 0.07 l
0.55 0.06 l
0.55 0.07 l
0.55 0.06 l
0.55 0.07 l
0.56 0.06 l
0.55 0.07 l
0.55 0.06 l
0.55 0.07 l
0.55 0.06 l
0.56 0.07 l
0.55 0.06 l
0.55 0.07 l
0.55 0.06 l
0.55 0.06 l
0.56 0.07 l
0.55 0.06 l
0.55 0.06 l
0.55 0.07 l
0.55 0.06 l
0.56 0.06 l
0.55 0.07 l
0.55 0.06 l
0.55 0.06 l
0.55 0.06 l
0.56 0.07 l
0.55 0.06 l
0.55 0.06 l
0.55 0.06 l
0.55 0.06 l
0.56 0.07 l
0.55 0.06 l
0.55 0.06 l
0.55 0.06 l
0.56 0.06 l
0.55 0.06 l
0.55 0.06 l
0.55 0.06 l
0.55 0.06 l
0.56 0.07 l
0.55 0.06 l
0.55 0.06 l
0.55 0.06 l
0.55 0.06 l
0.56 0.06 l
0.55 0.06 l
0.55 0.06 l
0.55 0.06 l
0.55 0.05 l
0.56 0.06 l
0.55 0.06 l
0.55 0.06 l
0.55 0.06 l
0.55 0.06 l
0.56 0.06 l
0.55 0.06 l
0.55 0.06 l
0.55 0.05 l
0.55 0.06 l
522.77 198.37 lineto
0.55 0.06 l
0.55 0.06 l
0.55 0.05 l
0.55 0.06 l
0.56 0.06 l
0.55 0.06 l
0.55 0.05 l
0.55 0.06 l
0.55 0.06 l
0.56 0.06 l
0.55 0.05 l
0.55 0.06 l
0.55 0.06 l
0.56 0.05 l
0.55 0.06 l
0.55 0.05 l
0.55 0.06 l
0.55 0.06 l
0.56 0.05 l
0.55 0.06 l
0.55 0.05 l
0.55 0.06 l
0.55 0.05 l
0.56 0.06 l
0.55 0.05 l
0.55 0.06 l
0.55 0.05 l
0.55 0.06 l
0.56 0.05 l
0.55 0.06 l
0.55 0.05 l
0.55 0.06 l
0.55 0.05 l
0.56 0.06 l
0.55 0.05 l
0.55 0.05 l
0.55 0.06 l
0.55 0.05 l
0.56 0.06 l
0.55 0.05 l
0.55 0.05 l
0.55 0.06 l
0.55 0.05 l
0.56 0.05 l
0.55 0.05 l
0.55 0.06 l
0.55 0.05 l
0.56 0.05 l
0.55 0.06 l
0.55 0.05 l
0.55 0.05 l
0.55 0.05 l
0.56 0.05 l
0.55 0.06 l
0.55 0.05 l
0.55 0.05 l
0.55 0.05 l
0.56 0.05 l
0.55 0.05 l
0.55 0.06 l
0.55 0.05 l
0.55 0.05 l
0.56 0.05 l
0.55 0.05 l
0.55 0.05 l
0.55 0.05 l
0.55 0.05 l
0.56 0.05 l
0.55 0.05 l
0.55 0.05 l
0.55 0.05 l
0.55 0.05 l
0.56 0.05 l
0.55 0.05 l
0.55 0.05 l
0.55 0.05 l
0.55 0.05 l
0.56 0.05 l
0.55 0.05 l
0.55 0.05 l
0.55 0.05 l
0.56 0.05 l
0.55 0.05 l
0.55 0.05 l
0.55 0.04 l
0.55 0.05 l
0.56 0.05 l
0.55 0.05 l
0.55 0.05 l
0.55 0.05 l
0.55 0.04 l
0.56 0.05 l
0.55 0.05 l
0.55 0.05 l
0.55 0.05 l
0.55 0.04 l
0.56 0.05 l
0.55 0.05 l
0.55 0.05 l
577.97 203.61 lineto
0.55 0.05 l
0.56 0.05 l
0.55 0.04 l
0.55 0.05 l
0.55 0.05 l
0.55 0.04 l
0.56 0.05 l
0.55 0.05 l
0.55 0.04 l
0.55 0.05 l
0.55 0.05 l
0.56 0.04 l
0.55 0.05 l
0.55 0.04 l
0.55 0.05 l
0.55 0.05 l
0.56 0.04 l
0.55 0.05 l
0.55 0.04 l
0.55 0.05 l
0.56 0.04 l
0.55 0.05 l
0.55 0.04 l
0.55 0.05 l
0.55 0.04 l
0.56 0.05 l
0.55 0.04 l
0.55 0.05 l
0.55 0.04 l
0.55 0.04 l
0.56 0.05 l
0.55 0.04 l
0.55 0.05 l
0.55 0.04 l
0.55 0.05 l
0.56 0.04 l
0.55 0.04 l
0.55 0.05 l
0.55 0.04 l
0.55 0.04 l
0.56 0.05 l
0.55 0.04 l
0.55 0.04 l
0.55 0.05 l
0.55 0.04 l
0.56 0.04 l
0.55 0.05 l
0.55 0.04 l
0.55 0.04 l
0.55 0.04 l
0.56 0.05 l
0.55 0.04 l
0.55 0.04 l
0.55 0.04 l
0.56 0.04 l
0.55 0.05 l
0.55 0.04 l
0.55 0.04 l
0.55 0.04 l
0.56 0.04 l
0.55 0.05 l
0.55 0.04 l
0.55 0.04 l
0.55 0.04 l
0.56 0.04 l
0.55 0.04 l
0.55 0.04 l
0.55 0.04 l
0.55 0.05 l
0.56 0.04 l
0.55 0.04 l
0.55 0.04 l
0.55 0.04 l
0.55 0.04 l
0.56 0.04 l
0.55 0.04 l
0.55 0.04 l
0.55 0.04 l
0.55 0.04 l
0.56 0.04 l
0.55 0.04 l
0.55 0.04 l
0.55 0.04 l
0.55 0.04 l
0.56 0.04 l
0.55 0.04 l
0.55 0.04 l
0.55 0.04 l
0.55 0.04 l
0.56 0.04 l
0.55 0.03 l
0.55 0.04 l
0.55 0.04 l
0.56 0.04 l
0.55 0.04 l
0.55 0.04 l
0.55 0.04 l
0.55 0.04 l
0.56 0.03 l
currentpoint o m
633.18 207.87 lineto
o
/bg { 1 1 1 srgb } def
0 0 0 srgb
568.38 119.52 86.88 -46.08 r p3
0 1 0 srgb
np
577.02 108.00 m
17.28 0 l
o
1 0 0 srgb
np
577.02 96.48 m
17.28 0 l
o
0 0 1 srgb
np
577.02 84.96 m
17.28 0 l
o
/Font1 findfont 10 s
0 0 0 srgb
602.94 104.41 (rho=0.5) 0 0 t
602.94 92.89 (rho=0.2905) 0 0 t
602.94 81.37 (rho=0.2074) 0 0 t
ep
%%Trailer
%%Pages: 1
%%EOF
